{
    "soapenv:Envelope":
    {
            "$":
            {
                "xmlns:soapenv":"http://schemas.xmlsoap.org/soap/envelope/"
            },
            "soap:Header":[
                {"$":
                    {
                        "xmlns:soap":"http://schemas.xmlsoap.org/soap/envelope/"
                    }
                }
            ],
            "soapenv:Body":
            [
                {
                    "OFFER_ELEMENT":
                    [
                        {
                            "EAI_SCHEDULER_TRX_ID":["3.0051134E7"],
                            "MSISDN":["628114796776"],
                            "OFFER_ID":["3690054"],
                            "STATUS":["A"],
                            "TRX_ID":["628114796776_810295955_0"],
                            "OFFER_NAME":["Spesial Add on Data 4 GB DD18"],
                            "OFFER_DESC":["Kuota Double 4GB Halo Kick 150rb selama 18 bulan"],"MESSAGE3":["Kuota 4GB Rp 20 rb Anda telah berakhir. Selanjutnya Paket Anda yang aktif adalah Halo Kick 150rb, diperpanjang sesuai periode tagihan. Info : 188"],
                            "RELATED_SCENARIO":["2"],
                            "IS_24_HOURS":[" "],
                            "SCHEDULER_CODE":["ContractNonMirroring"],
                            "OFFER_TYPE":["P"],
                            "INSTANCE_ID":["810295954"],
                            "START_DATE":["2018-02-21T11:12:05"],
                            "END_DATE":["2019-08-20T11:12:05"],
                            "CREATED_DATE":["2018-02-21T11:12:07"]
                        }
                    ],
                    [
                        {
                            "EAI_SCHEDULER_TRX_ID":["3.0051134E7"],
                            "MSISDN":["628114796776"],
                            "OFFER_ID":["3690054"],
                            "STATUS":["A"],
                            "TRX_ID":["628114796776_810295955_0"],
                            "OFFER_NAME":["Spesial Add on Data 4 GB DD18"],
                            "OFFER_DESC":["Kuota Double 4GB Halo Kick 150rb selama 18 bulan"],"MESSAGE3":["Kuota 4GB Rp 20 rb Anda telah berakhir. Selanjutnya Paket Anda yang aktif adalah Halo Kick 150rb, diperpanjang sesuai periode tagihan. Info : 188"],
                            "RELATED_SCENARIO":["2"],
                            "IS_24_HOURS":[" "],
                            "SCHEDULER_CODE":["ContractNonMirroring"],
                            "OFFER_TYPE":["P"],
                            "INSTANCE_ID":["810295954"],
                            "START_DATE":["2018-02-21T11:12:05"],
                            "END_DATE":["2019-08-20T11:12:05"],
                            "CREATED_DATE":["2018-02-21T11:12:07"]
                        }
                    ]
                }
            ]
    }
}